{
  "input": {
    "php": [
      "./**/*.php",
      "!./assets{,/**}"
    ],
    "sass": "./assets/sass/**/*.scss",
    "js": [
      "./assets/js/*.js",
      "!./assets/js/*.min.js",
      "./assets/js/tinymce/*.js",
      "!./assets/js/tinymce/*.min.js"
    ],
    "svg": "./assets/images/raw/**/*.svg",
    "images": "./assets/images/raw/**/*.{png,jpg,jpeg}",
    "banner": [
      "./assets/css/**/*.css",
      "!./assets/css/**/*.raw.css",
      "./assets/js/*.js",
      "./assets/js/tinymce/*.js"
    ],
    "ready": "./ready/**/*",
    "final": [
      "./assets/css/**/*.css",
      "./assets/css/**/*.html",
      "./assets/images/**/*",
      "./assets/js/**/*.js",
      "./assets/js/**/*.html",
      "./assets/libs/**/*",
      "./assets/packages/**/*",
      "./assets/vendor/**/*.php",
      "!./assets/vendor/**/test/*",
      "!./assets/vendor/**/Tests/*",
      "!./assets/vendor/**/tests/*",
      "!./assets/vendor/**/scripts/*",
      "!./assets/vendor/**/examples/*",
      "!./assets/vendor/**/.git",
      "./assets/index.html",
      "./includes/**/*",
      "./modules/**/*",
      "./languages/**/*",
      "!./languages/**/*.pot",
      "!./languages/**/*.po",
      "./*.php",
      "./*.md",
      "./LICENSE",
      "./index.html"
    ]
  },
  "output": {
    "css": "./assets/css",
    "js": "./assets/js",
    "sourcemaps": "./maps",
    "images": "./assets/images",
    "languages": "./languages/gpersiandate.pot",
    "ready": "./ready/",
    "final": ".."
  },
  "logs": {
    "tinypng": "./assets/images/raw/.tinypng-sigs"
  },
  "env": {
    "github": "",
    "tinypng": ""
  },
  "sass": {
    "errLogToConsole": true
  },
  "cssnano": {
    "dev": {
      "preset": [
        "default", {
          "zindex": false,
          "discardComments": false
        }
      ]
    },
    "build": {
      "preset": [
        "default", {
          "zindex": false,
          "discardComments": {
            "removeAll": true
          }
        }
      ]
    }
  },
  "autoprefixer": {
    "dev": {},
    "build": {
      "cascade": false
    }
  },
  "constants": {
    "version": "GPERSIANDATE_VERSION"
  },
  "pot": {
    "package": "gPersianDate",
    "domain": "GPERSIANDATE_TEXTDOMAIN",
    "metadataFile": "gpersiandate.php",
    "bugReport": "https://github.com/geminorum/gpersiandate/issues",
    "commentKeyword": "translators:",
    "headers": false,
    "lastTranslator": "",
    "team": "geminorum <contact@geminorum.ir>"
  },
  "textdomain": {
    "force": true,
    "text_domain": "GPERSIANDATE_TEXTDOMAIN",
    "keywords": [
      "__:1,2d",
      "_e:1,2d",
      "_x:1,2c,3d",
      "esc_html__:1,2d",
      "esc_html_e:1,2d",
      "esc_html_x:1,2c,3d",
      "esc_attr__:1,2d",
      "esc_attr_e:1,2d",
      "esc_attr_x:1,2c,3d",
      "_ex:1,2c,3d",
      "_n:1,2,4d",
      "_nx:1,2,4c,5d",
      "_n_noop:1,2,3d",
      "_nx_noop:1,2,3c,4d"
    ]
  },
  "banner": [
    "/**",
    " * <%= pkg.name %> - <%= pkg.description %>",
    " * @link <%= pkg.homepage %>",
    " * @license <%= pkg.license %>",
    " */",
    ""
  ]
}
